<?xml version="1.0" standalone="no"?>
<!DOCTYPE svg PUBLIC "-//W3C//DTD SVG 1.1//EN" "http://www.w3.org/Graphics/SVG/1.1/DTD/svg11.dtd" >
<svg xmlns="http://www.w3.org/2000/svg" xmlns:xlink="http://www.w3.org/1999/xlink" version="1.1" viewBox="0 -410 3144 2048">
  <g transform="matrix(1 0 0 -1 0 1638)">
   <path fill="currentColor"
d="M688 1114q148 4 290 -96q146 -102 222 -264q58 128 164 216q198 166 434 120q232 -44 340 -258q106 -210 10 -426q-82 -182 -306 -308q-6 -4 -2 -2h1204v-96h-1436q-40 0 -48 40q-6 42 34 54q104 34 200 88q196 112 264 264q78 174 -6 342q-86 172 -272 206
q-192 38 -354 -98q-106 -88 -152 -218q-14 -40 -22 -94q16 -94 6 -186q-6 -42 -46 -44q-42 0 -50 40q-20 94 -8 190q-12 66 -38 122q-64 144 -192 232q-118 82 -234 80q-110 -4 -226 -88q-128 -94 -196 -232q-8 -16 -16 -36q92 56 194 40q118 -20 194 -118q68 -90 70 -208
q4 -146 -90 -242q-48 -52 -112 -74q-68 -24 -138 -10q-118 22 -192 134q-56 88 -64 214q-14 178 66 344q80 158 226 266q140 102 282 106zM408 608q-86 2 -144 -58q-70 -72 -50 -170h-2q12 -86 48 -144q50 -76 128 -92q44 -8 88 8q42 14 74 48q66 70 64 174q-2 88 -52 152
q-52 68 -130 80q-12 2 -24 2z" />
  </g>

</svg>
