<?xml version="1.0" standalone="no"?>
<!DOCTYPE svg PUBLIC "-//W3C//DTD SVG 1.1//EN" "http://www.w3.org/Graphics/SVG/1.1/DTD/svg11.dtd" >
<svg xmlns="http://www.w3.org/2000/svg" xmlns:xlink="http://www.w3.org/1999/xlink" version="1.1" viewBox="0 -676 2044 2048">
  <g transform="matrix(1 0 0 -1 0 1638)">
   <path fill="currentColor"
d="M1134 886v-346h246v346h-246zM888 320q0 -100 79 -173t191 -73q90 0 156 58t66 138v172h-370q-52 0 -87 -35t-35 -87zM556 910q-190 0 -281 -129t-91 -313h-84v2q0 222 116 380t340 158q226 0 342 -158q96 -132 112 -310v0v444h836v-98h-344v-346h98q142 0 243 -86
t101 -208q0 -204 -136 -348t-330 -144h-468q-62 0 -104 -50t-42 -122q0 -50 25 -95t73 -77l-74 -86q-68 40 -108 108t-40 150q0 114 79 192t191 78h468q142 0 243 116t101 278q0 82 -65 139t-157 57h-98v-172q0 -122 -101 -208t-243 -86q-162 0 -278 101t-116 243
q0 90 74 156q40 36 88 52q-12 146 -88 254q-92 128 -282 128z" />
  </g>

</svg>
