<?xml version="1.0" standalone="no"?>
<!DOCTYPE svg PUBLIC "-//W3C//DTD SVG 1.1//EN" "http://www.w3.org/Graphics/SVG/1.1/DTD/svg11.dtd" >
<svg xmlns="http://www.w3.org/2000/svg" xmlns:xlink="http://www.w3.org/1999/xlink" version="1.1" viewBox="0 -410 3092 2048">
  <g transform="matrix(1 0 0 -1 0 1638)">
   <path fill="currentColor"
d="M1890 738q46 0 78 35t32 87q0 72 -6 123t-18 87q-94 -24 -152 -82t-58 -128q0 -52 36 -87t88 -35zM518 74q62 0 105 50t43 122t-43 122t-105 50t-105 -50t-43 -122t43 -122t105 -50zM1428 1634q264 0 416 -127t206 -329l36 2q82 0 170 -44q146 -76 172 -234q4 -22 4 -48
q0 -50 -16 -108h576v-102h-782l70 88q48 58 48 132q0 20 -4 42q-14 96 -100 140q-70 36 -138 36q14 -32 22 -87t8 -135q0 -90 -66 -155t-160 -65q-96 0 -165 65t-69 155q0 110 80 195t202 107q-44 164 -164 266t-346 102q-122 0 -209 -75t-87 -177q0 -68 58 -160t164 -196
q100 -96 155 -224t55 -268q0 -190 -120 -322t-286 -132q-114 0 -193 72t-79 174v490q0 82 -65 140t-155 58q-194 0 -331 -137t-137 -331q0 -114 26 -197t72 -123q-12 14 -18 53t-6 95q0 100 73 173t173 73t173 -79t73 -191q0 -114 -73 -192t-173 -78q-172 0 -295 136
t-123 330q0 234 166 400t400 166q142 0 243 -86t101 -210v-490q0 -62 43 -105t105 -43q122 0 208 104t86 252q0 110 -58 225t-162 217q-106 104 -164 210t-58 196q0 148 123 252t295 104z" />
  </g>

</svg>
