<?xml version="1.0" standalone="no"?>
<!DOCTYPE svg PUBLIC "-//W3C//DTD SVG 1.1//EN" "http://www.w3.org/Graphics/SVG/1.1/DTD/svg11.dtd" >
<svg xmlns="http://www.w3.org/2000/svg" xmlns:xlink="http://www.w3.org/1999/xlink" version="1.1" viewBox="0 -686 2758 2048">
  <g transform="matrix(1 0 0 -1 0 1638)">
   <path fill="currentColor"
d="M1170 766q66 0 112 43t46 103q0 72 -46 123t-112 51t-113 -51t-47 -123q0 -62 46 -104t114 -42zM1432 -586q172 0 308 81t204 213h-806q-20 0 -35 -15t-15 -35q0 -100 101 -172t243 -72zM272 348q106 -106 285 -164t403 -58q254 0 443 95t245 249h-1376q-20 0 -35 -15
t-15 -33q0 -12 13 -31t37 -43zM2018 -46v516h-246q-74 -200 -293 -321t-507 -121q-190 0 -374 50t-350 146q-68 40 -108 93t-40 105q0 62 50 104t122 42h1402q12 34 18 71t6 77q0 142 -101 254t-255 140q42 -34 64 -86t22 -112q0 -100 -79 -172t-193 -72q-100 0 -173 78
t-73 192t101 192t245 78q234 0 399 -144t165 -348q0 -40 -6 -76t-18 -72h222v616h122v-1230q0 -74 -26 -148h420v1132h124v-1230h-592q-82 -178 -252 -286t-382 -108q-194 0 -330 101t-136 243q0 62 50 105t122 43h856q24 72 24 148z" />
  </g>

</svg>
