<?xml version="1.0" standalone="no"?>
<!DOCTYPE svg PUBLIC "-//W3C//DTD SVG 1.1//EN" "http://www.w3.org/Graphics/SVG/1.1/DTD/svg11.dtd" >
<svg xmlns="http://www.w3.org/2000/svg" xmlns:xlink="http://www.w3.org/1999/xlink" version="1.1" viewBox="0 -726 3266 2048">
  <g transform="matrix(1 0 0 -1 0 1638)">
   <path fill="currentColor"
d="M1650 -246q-86 -10 -154 -38q-72 -34 -110 -94q-32 -52 -32 -106q0 -50 22 -80q30 -40 106 -40q62 0 100 34q32 32 50 96q18 66 18 228zM566 74q82 0 140 58t58 138q0 82 -58 140t-140 58q-72 0 -122 -58t-50 -140t51 -139t121 -57zM2098 -320q-60 -28 -92 -74
q-24 -38 -24 -74q0 -52 28 -86q30 -34 84 -34q56 0 84 32q28 30 28 84q0 42 -34 86q-30 42 -74 66zM1772 -246q0 -180 -22 -262q-26 -94 -84 -150q-72 -68 -184 -68q-138 0 -204 88q-46 62 -46 154t52 174q58 88 160 136h2v2q92 38 202 48h2v124h-690v74q60 72 92 172
t32 222q0 184 -129 313t-315 129q-184 0 -313 -129t-129 -313q0 -84 32 -167t90 -153q-12 34 -18 65t-6 57q0 122 79 209t191 87q122 0 209 -86t87 -210q0 -122 -86 -208t-210 -86q-194 0 -330 144t-136 348q0 224 158 382t382 158q234 0 400 -159t166 -381q0 -98 -25 -192
t-73 -178h540v886h124v-1106q142 -10 328 -70q74 24 160 24q122 0 208 -50q120 -68 120 -208q0 -74 -32 -164h610v-122h-814l58 92q56 92 56 194q0 68 -60 102q-56 34 -146 34h-4q72 -82 72 -182t-58 -166q-66 -72 -176 -72t-176 76q-58 68 -58 166q0 108 90 192
q-96 24 -178 30z" />
  </g>

</svg>
