<?xml version="1.0" standalone="no"?>
<!DOCTYPE svg PUBLIC "-//W3C//DTD SVG 1.1//EN" "http://www.w3.org/Graphics/SVG/1.1/DTD/svg11.dtd" >
<svg xmlns="http://www.w3.org/2000/svg" xmlns:xlink="http://www.w3.org/1999/xlink" version="1.1" viewBox="0 -688 2806 2048">
  <g transform="matrix(1 0 0 -1 0 1638)">
   <path fill="currentColor"
d="M1474 98h344q72 0 122 79t50 191q0 224 -108 383t-262 159q-62 0 -104 -51t-42 -121v-640zM1876 1488q-94 0 -138 -67t-44 -167q0 -74 26 -144t72 -126q146 -68 233 -235t87 -381q0 -152 -86 -260t-208 -108h-1058v984h124v-886h466v640q0 114 79 192t191 78h26
q-36 52 -55 115t-19 131q0 142 67 243t237 101q230 0 460 -248q370 -366 370 -856v-2q0 -490 -381 -835t-921 -345h-2q-540 0 -921 345t-381 835q0 172 50 324t146 266l86 -74q-76 -94 -118 -226t-42 -290q0 -448 346 -765t834 -317h2q488 0 834 317t346 765v2
q0 448 -336 786q-234 208 -372 208z" />
  </g>

</svg>
