<?xml version="1.0" standalone="no"?>
<!DOCTYPE svg PUBLIC "-//W3C//DTD SVG 1.1//EN" "http://www.w3.org/Graphics/SVG/1.1/DTD/svg11.dtd" >
<svg xmlns="http://www.w3.org/2000/svg" xmlns:xlink="http://www.w3.org/1999/xlink" version="1.1" viewBox="0 -324 746 1024">
  <g transform="matrix(1 0 0 -1 0 700)">
   <path fill="currentColor"
d="M246 270h123v173h-123v-173zM123 160q0 -50 39.5 -86.5t95.5 -36.5q45 0 78 29t33 69v86h-185q-26 0 -43.5 -17.5t-17.5 -43.5zM184 492h360v-49h-114v-173h194v222h61v-271h-255v-86q0 -61 -50.5 -104t-121.5 -43q-81 0 -139 50.5t-58 121.5q0 45 36.5 77.5t86.5 32.5
v222z" />
  </g>

</svg>
