<?xml version="1.0" encoding="UTF-8" standalone="no"?>
<!-- Created with Inkscape (http://www.inkscape.org/) -->

<svg
   xmlns:dc="http://purl.org/dc/elements/1.1/"
   xmlns:cc="http://creativecommons.org/ns#"
   xmlns:rdf="http://www.w3.org/1999/02/22-rdf-syntax-ns#"
   xmlns:svg="http://www.w3.org/2000/svg"
   xmlns="http://www.w3.org/2000/svg"
   xmlns:sodipodi="http://sodipodi.sourceforge.net/DTD/sodipodi-0.dtd"
   xmlns:inkscape="http://www.inkscape.org/namespaces/inkscape"
   width="0.66795808mm"
   height="0.75838035mm"
   viewBox="0 0 0.66795808 0.75838035"
   version="1.1"
   id="svg2949"
   inkscape:version="0.92.4 (unknown)"
   sodipodi:docname="1000.svg">
  <defs
     id="defs2943" />
  <sodipodi:namedview
     id="base"
     pagecolor="#ffffff"
     bordercolor="#666666"
     borderopacity="1.0"
     inkscape:pageopacity="0.0"
     inkscape:pageshadow="2"
     inkscape:zoom="256"
     inkscape:cx="1.2622811"
     inkscape:cy="1.4331416"
     inkscape:document-units="mm"
     inkscape:current-layer="layer1"
     showgrid="false"
     fit-margin-top="0"
     fit-margin-left="0"
     fit-margin-right="0"
     fit-margin-bottom="0"
     inkscape:window-width="1920"
     inkscape:window-height="1017"
     inkscape:window-x="0"
     inkscape:window-y="30"
     inkscape:window-maximized="1" />
  <metadata
     id="metadata2946">
    <rdf:RDF>
      <cc:Work
         rdf:about="">
        <dc:format>image/svg+xml</dc:format>
        <dc:type
           rdf:resource="http://purl.org/dc/dcmitype/StillImage" />
        <dc:title></dc:title>
      </cc:Work>
    </rdf:RDF>
  </metadata>
  <g
     inkscape:label="Layer 1"
     inkscape:groupmode="layer"
     id="layer1"
     transform="translate(-97.939831,-155.25771)">
    <g
       transform="matrix(0.35277777,0,0,0.35277777,70.446972,50.808026)"
       id="g729"
       style="fill:#211e1e;fill-opacity:1">
      <g
         id="use727"
         transform="matrix(0.26458333,0,0,0.26458333,78.040001,297.5)">
        <path
           inkscape:connector-curvature="0"
           id="path2961"
           d="M 6.75,-1.40625 C 6.75,-2.484375 6.140625,-3.5 5.140625,-3.5 h -0.9375 V -4.515625 H 5.65625 V -5.375 H 1.171875 v 2.03125 c -0.5625,0.34375 -0.90625,0.796875 -0.90625,1.453125 0,1.34375 0.96875,1.90625 2.03125,1.90625 0.921875,0 1.90625,-0.5 1.90625,-1.625 v -1.0625 H 4.9375 c 0.640625,0 0.9375,0.703125 0.9375,1.328125 C 5.875,-0.125 4.546875,0.5 3.625,0.5 H 2.21875 c -1.53125,0 -2.625,0.75 -2.625,1.953125 V 2.75 H 0.453125 V 2.515625 c 0,-0.75 0.78125,-1.171875 1.75,-1.171875 h 1.1875 C 5.5625,1.34375 6.75,0.25 6.75,-1.40625 Z M 3.296875,-3.5 h -1.28125 v -1.015625 h 1.28125 z m 0,1.6875 c 0,0.671875 -0.421875,0.984375 -0.9375,0.984375 -0.609375,0 -1.1875,-0.390625 -1.1875,-0.953125 0,-0.515625 0.40625,-0.890625 0.984375,-0.890625 h 1.140625 z m 0,0"
           style="stroke:none" />
      </g>
    </g>
  </g>
</svg>
