<?xml version="1.0" encoding="UTF-8" standalone="no"?>
<!-- Created with Inkscape (http://www.inkscape.org/) -->

<svg
   xmlns:dc="http://purl.org/dc/elements/1.1/"
   xmlns:cc="http://creativecommons.org/ns#"
   xmlns:rdf="http://www.w3.org/1999/02/22-rdf-syntax-ns#"
   xmlns:svg="http://www.w3.org/2000/svg"
   xmlns="http://www.w3.org/2000/svg"
   xmlns:sodipodi="http://sodipodi.sourceforge.net/DTD/sodipodi-0.dtd"
   xmlns:inkscape="http://www.inkscape.org/namespaces/inkscape"
   id="svg3406"
   version="1.1"
   inkscape:version="0.91 r13725"
   width="495.9863"
   height="446.11929"
   viewBox="0 0 495.9863 446.11929"
   sodipodi:docname="alakku - ஆளாக்கு2.svg">
  <metadata
     id="metadata3412">
    <rdf:RDF>
      <cc:Work
         rdf:about="">
        <dc:format>image/svg+xml</dc:format>
        <dc:type
           rdf:resource="http://purl.org/dc/dcmitype/StillImage" />
        <dc:title></dc:title>
      </cc:Work>
    </rdf:RDF>
  </metadata>
  <defs
     id="defs3410" />
  <sodipodi:namedview
     pagecolor="#ffffff"
     bordercolor="#666666"
     borderopacity="1"
     objecttolerance="10"
     gridtolerance="10"
     guidetolerance="10"
     inkscape:pageopacity="0"
     inkscape:pageshadow="2"
     inkscape:window-width="1366"
     inkscape:window-height="705"
     id="namedview3408"
     showgrid="true"
     showguides="false"
     inkscape:guide-bbox="true"
     inkscape:zoom="1.4142136"
     inkscape:cx="309.82932"
     inkscape:cy="188.28837"
     inkscape:window-x="0"
     inkscape:window-y="30"
     inkscape:window-maximized="1"
     inkscape:current-layer="svg3406"
     fit-margin-top="0"
     fit-margin-left="0"
     fit-margin-right="0"
     fit-margin-bottom="0"
     showborder="false">
    <sodipodi:guide
       position="462.34995,190.38508"
       orientation="1,0"
       id="guide3418" />
    <sodipodi:guide
       position="445.05492,202.39918"
       orientation="1,0"
       id="guide3420" />
    <sodipodi:guide
       position="467.56486,216.06357"
       orientation="0,1"
       id="guide3422" />
    <sodipodi:guide
       position="354.75112,198.70253"
       orientation="0,1"
       id="guide3424" />
    <sodipodi:guide
       position="393.17804,171.44244"
       orientation="1,0"
       id="guide3426" />
    <sodipodi:guide
       position="375.87482,270.5231"
       orientation="1,0"
       id="guide3428" />
    <sodipodi:guide
       position="327.12529,135.23243"
       orientation="1,0"
       id="guide3430" />
    <sodipodi:guide
       position="309.86327,264.71409"
       orientation="1,0"
       id="guide3432" />
    <sodipodi:guide
       position="494.49757,350.00101"
       orientation="0,1"
       id="guide3434" />
    <sodipodi:guide
       position="291.38003,367.16401"
       orientation="0,1"
       id="guide3436" />
    <sodipodi:guide
       position="427.70675,377.4579"
       orientation="1,0"
       id="guide3438" />
    <sodipodi:guide
       position="384.48629,262.25"
       orientation="1,0"
       id="guide3440" />
    <sodipodi:guide
       position="261.02843,232.72198"
       orientation="0,1"
       id="guide3442" />
    <sodipodi:guide
       position="280.84951,329.06528"
       orientation="0,1"
       id="guide3444" />
    <sodipodi:guide
       position="238.59988,179.86575"
       orientation="0,1"
       id="guide3446" />
    <sodipodi:guide
       position="258.48629,262"
       orientation="1,0"
       id="guide3448" />
    <sodipodi:guide
       position="245.75934,271.2151"
       orientation="0,1"
       id="guide3464" />
    <sodipodi:guide
       position="289.22848,246.46875"
       orientation="0,1"
       id="guide3466" />
    <sodipodi:guide
       position="263.73629,299.25"
       orientation="0,1"
       id="guide3489" />
    <sodipodi:guide
       position="237.00889,189.05813"
       orientation="1,0"
       id="guide3491" />
    <inkscape:grid
       type="xygrid"
       id="grid3353"
       originx="189.98629"
       originy="138.5" />
  </sodipodi:namedview>
  <path
     style="fill:#000000"
     d="m 294.78333,174.24793 c -31.23621,0.55115 -52.19909,15.80023 -62.04213,37.95604 -8.26693,18.60814 -7.59718,39.94581 -3.11523,58.72764 12.62036,39.7866 65.47157,49.52574 88.05775,22.79878 11.96359,-14.31519 9.04675,-39.08801 -3.40235,-51.69144 -12.44401,-12.59828 -39.33067,-12.01622 -51.58398,0.12891 -9.04294,8.9631 -12.72896,23.3953 -9.00976,37.11914 -2.76806,-3.79538 -5.36391,-7.49039 -6.47461,-9.82813 -13.2887,-27.96936 -1.17317,-62.66978 25.25976,-76.14453 23.10247,-9.65713 56.06158,-3.07372 67.25,20.24609 0.005,0.32888 -0.0605,91.37248 -0.1191,95.16602 3.15718,-0.003 15.49517,-0.003 17.32422,-0.004 -0.004,-3.13775 -0.004,-108.4132 0.002,-117.26953 1.5107,-0.009 45.48429,0.0218 48.74024,0.0352 0.003,4.3566 0.003,127.27358 -0.006,133.79687 -2.13692,0.0972 -64.85061,0.0975 -66.00196,0.10352 l -74.97092,0.25976 c 0,57.29697 50.09402,77.88731 76.6276,77.88731 33.46642,0 69.55874,-15.59034 81.67145,-60.79559 1.01636,-0.11107 65.18756,0.0136 69.18359,0.0156 -0.003,-6.07719 -0.0253,-168.24337 -0.0273,-168.47266 -0.1988,-0.002 -16.60656,-0.001 -17.29492,0 0.003,11.47599 0.003,142.80865 0.006,151.10352 -2.51731,-0.005 -50.62774,-0.006 -51.8711,-0.004 -0.008,-5.22313 -0.01,-129.23651 -0.0117,-133.93164 6.79701,-0.0134 34.16198,-0.007 34.53321,-0.008 -0.003,-0.56751 -0.002,-16.55259 0,-17.16797 -0.62934,0.006 -117.19224,0.0166 -117.83985,0.0117 -0.005,0.46841 -0.01,14.20122 -0.002,17.16211 -12.79559,-11.8852 -28.86338,-17.48355 -44.88291,-17.2009 z m -6.76172,71.3655 c 11.12491,2.3e-4 23.75916,10.26872 23.68727,23.51138 -0.0627,11.55404 -9.07986,25.63224 -23.33372,25.6327 -14.25461,6.6e-4 -24.04282,-10.88991 -24.04278,-25.6327 -4e-5,-14.74278 12.56386,-23.51161 23.68923,-23.51138 z m 55.52305,97.13883 c 31.01815,0.0296 62.22575,-0.24039 62.13124,-0.006 -6.98084,21.62248 -25.89062,42.57222 -63.75388,42.57222 -37.13674,0 -52.37986,-21.37328 -57.99416,-42.32612 -0.16601,-0.61955 28.59866,-0.26943 59.6168,-0.23982 z"
     id="path3416"
     inkscape:connector-curvature="0"
     sodipodi:nodetypes="ssccsscscccccccccccccccccccccsascsaccsssc" />
  <g
     id="g3359"
     transform="matrix(3.5433071,0,0,3.5433071,-76.370068,-195.40184)">
    <rect
       y="61.303913"
       x="27.510942"
       height="16.96777"
       width="51.964855"
       id="rect3347"
       style="opacity:1;fill:#1a1a1a;fill-opacity:1;stroke:#ff2a2a;stroke-width:0.14111111;stroke-linecap:round;stroke-linejoin:round;stroke-miterlimit:4;stroke-dasharray:0.28222222, 0.28222222;stroke-dashoffset:0;stroke-opacity:1" />
    <text
       sodipodi:linespacing="125%"
       id="text3339"
       y="64.448685"
       x="28.661133"
       style="font-style:normal;font-weight:normal;font-size:9.63140392px;line-height:125%;font-family:sans-serif;letter-spacing:0px;word-spacing:0px;fill:#f9f9f9;fill-opacity:1;stroke:none;stroke-width:1px;stroke-linecap:butt;stroke-linejoin:miter;stroke-opacity:1"
       xml:space="preserve"><tspan
         style="font-style:normal;font-variant:normal;font-weight:normal;font-stretch:normal;font-size:3.00981379px;font-family:'American Typewriter';-inkscape-font-specification:'American Typewriter';fill:#f9f9f9"
         y="64.448685"
         x="28.661133"
         id="tspan3341"
         sodipodi:role="line">Glyph name :</tspan></text>
    <text
       xml:space="preserve"
       style="font-style:normal;font-weight:normal;font-size:11.28888893px;line-height:125%;font-family:sans-serif;letter-spacing:0px;word-spacing:0px;fill:#f9f9f9;fill-opacity:1;stroke:none;stroke-width:1px;stroke-linecap:butt;stroke-linejoin:miter;stroke-opacity:1"
       x="48.655766"
       y="64.322769"
       id="text3343"
       sodipodi:linespacing="125%"><tspan
         sodipodi:role="line"
         id="tspan3345"
         x="48.655766"
         y="64.322769"
         style="font-style:normal;font-variant:normal;font-weight:normal;font-stretch:normal;font-size:3.52777791px;font-family:'Uni Ila.Sundaram-07';-inkscape-font-specification:'Uni Ila.Sundaram-07';fill:#f9f9f9">ஆளாக்கு</tspan></text>
    <text
       sodipodi:linespacing="125%"
       id="text3349"
       y="67.64711"
       x="29.506556"
       style="font-style:normal;font-weight:normal;font-size:11.28888893px;line-height:125%;font-family:sans-serif;letter-spacing:0px;word-spacing:0px;fill:#000000;fill-opacity:1;stroke:none;stroke-width:1px;stroke-linecap:butt;stroke-linejoin:miter;stroke-opacity:1"
       xml:space="preserve"><tspan
         style="font-style:normal;font-variant:normal;font-weight:normal;font-stretch:normal;font-size:1.76388896px;font-family:'American Typewriter';-inkscape-font-specification:'American Typewriter';fill:#ffffff"
         y="67.64711"
         x="29.506556"
         id="tspan3351"
         sodipodi:role="line">1. start with the raster image, resize, trace to vector.</tspan><tspan
         id="tspan3355"
         style="font-style:normal;font-variant:normal;font-weight:normal;font-stretch:normal;font-size:1.76388896px;font-family:'American Typewriter';-inkscape-font-specification:'American Typewriter';fill:#ffffff"
         y="69.851974"
         x="29.506556"
         sodipodi:role="line">2. use guidelines, boxes, simple geometries to edit.</tspan><tspan
         id="tspan3353"
         style="font-style:normal;font-variant:normal;font-weight:normal;font-stretch:normal;font-size:1.76388896px;font-family:'American Typewriter';-inkscape-font-specification:'American Typewriter';fill:#ffffff"
         y="72.056831"
         x="29.506556"
         sodipodi:role="line">3. use reduction process to remove unnecessary nodes.</tspan><tspan
         id="tspan3357"
         style="font-style:normal;font-variant:normal;font-weight:normal;font-stretch:normal;font-size:1.76388896px;font-family:'American Typewriter';-inkscape-font-specification:'American Typewriter';fill:#ffffff"
         y="74.261696"
         x="29.506556"
         sodipodi:role="line">4. use node tools to symmetrize and align with curvature.</tspan><tspan
         style="font-style:normal;font-variant:normal;font-weight:normal;font-stretch:normal;font-size:1.76388896px;font-family:'American Typewriter';-inkscape-font-specification:'American Typewriter';fill:#ffffff"
         y="76.466553"
         x="29.506556"
         sodipodi:role="line"
         id="tspan3375">5. use grids and snaps wherever possible.</tspan></text>
  </g>
  <rect
     style="opacity:1;fill:none;fill-opacity:1;stroke:#ff0000;stroke-width:1;stroke-linecap:round;stroke-linejoin:round;stroke-miterlimit:4;stroke-dasharray:1.99999999, 3.99999996;stroke-dashoffset:0;stroke-opacity:1"
     id="rect3383"
     width="299"
     height="399"
     x="209.76605"
     y="89.386574" />
</svg>
