<?xml version="1.0" encoding="UTF-8" standalone="no"?>
<!-- Created with Inkscape (http://www.inkscape.org/) -->

<svg
   xmlns:dc="http://purl.org/dc/elements/1.1/"
   xmlns:cc="http://creativecommons.org/ns#"
   xmlns:rdf="http://www.w3.org/1999/02/22-rdf-syntax-ns#"
   xmlns:svg="http://www.w3.org/2000/svg"
   xmlns="http://www.w3.org/2000/svg"
   xmlns:sodipodi="http://sodipodi.sourceforge.net/DTD/sodipodi-0.dtd"
   xmlns:inkscape="http://www.inkscape.org/namespaces/inkscape"
   width="78.496033mm"
   height="51.325871mm"
   viewBox="0 0 78.496033 51.325871"
   version="1.1"
   id="svg4666"
   inkscape:version="0.91 r13725"
   sodipodi:docname="cevitu - செவிடு.svg">
  <defs
     id="defs4660" />
  <sodipodi:namedview
     id="base"
     pagecolor="#ffffff"
     bordercolor="#666666"
     borderopacity="1.0"
     inkscape:pageopacity="0.0"
     inkscape:pageshadow="2"
     inkscape:zoom="2.8"
     inkscape:cx="187.67877"
     inkscape:cy="105.97031"
     inkscape:document-units="mm"
     inkscape:current-layer="layer1"
     showgrid="true"
     showguides="true"
     inkscape:guide-bbox="true"
     inkscape:measure-start="412.143,701.964"
     inkscape:measure-end="422.177,701.964"
     inkscape:snap-global="false"
     inkscape:window-width="1366"
     inkscape:window-height="705"
     inkscape:window-x="0"
     inkscape:window-y="30"
     inkscape:window-maximized="1"
     fit-margin-top="0"
     fit-margin-left="0"
     fit-margin-right="0"
     fit-margin-bottom="0"
     showborder="false">
    <sodipodi:guide
       position="57.931834,32.588117"
       orientation="0,1"
       id="guide4685"
       inkscape:locked="false" />
    <sodipodi:guide
       position="52.992945,34.855967"
       orientation="1,0"
       id="guide4691"
       inkscape:locked="false" />
    <sodipodi:guide
       position="78.39294,17.620258"
       orientation="1,0"
       id="guide4703"
       inkscape:locked="false" />
    <sodipodi:guide
       position="80.50961,0.082158685"
       orientation="0,1"
       id="guide3475" />
    <sodipodi:guide
       position="65.692943,22.508748"
       orientation="1,0"
       id="guide3371" />
    <sodipodi:guide
       position="63.181798,16.220108"
       orientation="0,1"
       id="guide3373" />
    <inkscape:grid
       type="xygrid"
       id="grid3352"
       originx="-27.440386"
       originy="-186.1341" />
    <sodipodi:guide
       position="60.754056,27.220847"
       orientation="0,1"
       id="guide3436" />
    <sodipodi:guide
       position="63.979451,5.4998184"
       orientation="0,1"
       id="guide3438" />
    <sodipodi:guide
       position="72.7737,10.287518"
       orientation="0,1"
       id="guide3440" />
    <sodipodi:guide
       position="69.560631,14.995118"
       orientation="1,0"
       id="guide4251" />
  </sodipodi:namedview>
  <metadata
     id="metadata4663">
    <rdf:RDF>
      <cc:Work
         rdf:about="">
        <dc:format>image/svg+xml</dc:format>
        <dc:type
           rdf:resource="http://purl.org/dc/dcmitype/StillImage" />
        <dc:title></dc:title>
        <cc:license
           rdf:resource="http://creativecommons.org/publicdomain/zero/1.0/" />
      </cc:Work>
      <cc:License
         rdf:about="http://creativecommons.org/publicdomain/zero/1.0/">
        <cc:permits
           rdf:resource="http://creativecommons.org/ns#Reproduction" />
        <cc:permits
           rdf:resource="http://creativecommons.org/ns#Distribution" />
        <cc:permits
           rdf:resource="http://creativecommons.org/ns#DerivativeWorks" />
      </cc:License>
    </rdf:RDF>
  </metadata>
  <g
     inkscape:label="Layer 1"
     inkscape:groupmode="layer"
     id="layer1"
     transform="translate(-27.440387,-59.540024)">
    <rect
       style="opacity:1;fill:none;fill-opacity:1;stroke:#ff2a2a;stroke-width:0.14111114;stroke-linecap:round;stroke-linejoin:round;stroke-miterlimit:4;stroke-dasharray:0.28222223, 0.28222223;stroke-dashoffset:0;stroke-opacity:1"
       id="rect3350"
       width="25.384886"
       height="32.432041"
       x="80.48098"
       y="78.363297" />
    <g
       id="g3359"
       transform="translate(0,-1.6933333)">
      <rect
         y="61.303913"
         x="27.510942"
         height="16.96777"
         width="51.964855"
         id="rect3347"
         style="opacity:1;fill:#1a1a1a;fill-opacity:1;stroke:#ff2a2a;stroke-width:0.14111111;stroke-linecap:round;stroke-linejoin:round;stroke-miterlimit:4;stroke-dasharray:0.28222222, 0.28222222;stroke-dashoffset:0;stroke-opacity:1" />
      <text
         sodipodi:linespacing="125%"
         id="text3339"
         y="64.448685"
         x="28.661133"
         style="font-style:normal;font-weight:normal;font-size:9.63140392px;line-height:125%;font-family:sans-serif;letter-spacing:0px;word-spacing:0px;fill:#f9f9f9;fill-opacity:1;stroke:none;stroke-width:1px;stroke-linecap:butt;stroke-linejoin:miter;stroke-opacity:1"
         xml:space="preserve"><tspan
           style="font-style:normal;font-variant:normal;font-weight:normal;font-stretch:normal;font-size:3.00981379px;font-family:'American Typewriter';-inkscape-font-specification:'American Typewriter';fill:#f9f9f9"
           y="64.448685"
           x="28.661133"
           id="tspan3341"
           sodipodi:role="line">Glyph name :</tspan></text>
      <text
         xml:space="preserve"
         style="font-style:normal;font-weight:normal;font-size:11.28888893px;line-height:125%;font-family:sans-serif;letter-spacing:0px;word-spacing:0px;fill:#f9f9f9;fill-opacity:1;stroke:none;stroke-width:1px;stroke-linecap:butt;stroke-linejoin:miter;stroke-opacity:1"
         x="48.655766"
         y="64.322769"
         id="text3343"
         sodipodi:linespacing="125%"><tspan
           sodipodi:role="line"
           id="tspan3345"
           x="48.655766"
           y="64.322769"
           style="font-style:normal;font-variant:normal;font-weight:normal;font-stretch:normal;font-size:3.52777791px;font-family:'Uni Ila.Sundaram-07';-inkscape-font-specification:'Uni Ila.Sundaram-07';fill:#f9f9f9">செவிடு</tspan></text>
      <text
         sodipodi:linespacing="125%"
         id="text3349"
         y="67.64711"
         x="29.506556"
         style="font-style:normal;font-weight:normal;font-size:11.28888893px;line-height:125%;font-family:sans-serif;letter-spacing:0px;word-spacing:0px;fill:#000000;fill-opacity:1;stroke:none;stroke-width:1px;stroke-linecap:butt;stroke-linejoin:miter;stroke-opacity:1"
         xml:space="preserve"><tspan
           style="font-style:normal;font-variant:normal;font-weight:normal;font-stretch:normal;font-size:1.76388896px;font-family:'American Typewriter';-inkscape-font-specification:'American Typewriter';fill:#ffffff"
           y="67.64711"
           x="29.506556"
           id="tspan3351"
           sodipodi:role="line">1. start with the raster image, resize, trace to vector.</tspan><tspan
           id="tspan3355"
           style="font-style:normal;font-variant:normal;font-weight:normal;font-stretch:normal;font-size:1.76388896px;font-family:'American Typewriter';-inkscape-font-specification:'American Typewriter';fill:#ffffff"
           y="69.851974"
           x="29.506556"
           sodipodi:role="line">2. use guidelines, boxes, simple geometries to edit.</tspan><tspan
           id="tspan3353"
           style="font-style:normal;font-variant:normal;font-weight:normal;font-stretch:normal;font-size:1.76388896px;font-family:'American Typewriter';-inkscape-font-specification:'American Typewriter';fill:#ffffff"
           y="72.056831"
           x="29.506556"
           sodipodi:role="line">3. use reduction process to remove unnecessary nodes.</tspan><tspan
           id="tspan3357"
           style="font-style:normal;font-variant:normal;font-weight:normal;font-stretch:normal;font-size:1.76388896px;font-family:'American Typewriter';-inkscape-font-specification:'American Typewriter';fill:#ffffff"
           y="74.261696"
           x="29.506556"
           sodipodi:role="line">4. use node tools to symmetrize and align with curvature.</tspan><tspan
           style="font-style:normal;font-variant:normal;font-weight:normal;font-stretch:normal;font-size:1.76388896px;font-family:'American Typewriter';-inkscape-font-specification:'American Typewriter';fill:#ffffff"
           y="76.466553"
           x="29.506556"
           sodipodi:role="line"
           id="tspan3375">5. use grids and snaps wherever possible.</tspan></text>
    </g>
    <path
       style="fill:#000000"
       d="m 331.83817,296.35547 c -9.64235,0 -13.83817,12.25976 -13.83817,12.25976 0,0 -2.30147,-12.22851 -15.96484,-12.22851 -10.34202,0 -16.27902,10.61253 -16.58594,21.15625 0.0961,14.4234 9.08399,17.83594 14.53906,17.83594 2.03374,0 4.36247,-0.83319 5.76563,-2.23633 6.34974,-6.64074 5.98862,-20.0237 -3.60547,-22.2168 -3.62796,-0.82931 -6.67878,2.93721 -7.34571,5.81445 l 3.76758,2.05469 c 0.5977,-2.55749 2.99932,-3.19322 4.625,-2.2168 3.53528,2.12338 2.53995,13.88615 -3.21679,14.37696 -7.53731,0.64262 -9.9961,-6.71722 -9.9961,-13.57031 0,-6.21415 4.42349,-16.88868 12.12696,-16.88868 9.74417,0 12.96255,10.81019 12.96093,16.87891 -0.002,6.87972 -0.004,17.98633 -0.004,17.98633 l 5.86718,0.008 0.01,-18.01758 c 8.8e-4,-1.86543 2.43364,-15.96289 12.69755,-15.96289 l 0.0664,38.02735 -16.17129,0.0432 c -11.93516,0 -19.71543,8.50173 -19.71543,16.908 0,9.15217 7.40297,16.98739 19.68276,16.98739 11.96185,0.12338 20.3398,-5.36105 20.37404,-16.98739 l 0.0382,-12.9717 c 0.014,-0.4715 0.33691,-0.59471 0.6328,-0.59471 0.37269,0 0.58149,0.14678 0.66658,0.59525 0,4.16117 3.21296,6.29823 5.38618,6.29823 3.16547,0 5.41706,-3.48793 5.41706,-6.36976 0,-0.77359 0.79317,-0.93213 1.18449,-0.9124 1.49711,0 3.43016,1.49899 3.43016,4.93946 0,6.40264 -8.94683,7.94475 -14.21617,9.03377 l -0.008,2.30901 34.53633,0.014 0.0458,-3.72678 -20.80537,0.0145 c 1.67604,-1.67604 3.39946,-3.88752 3.39946,-7.65549 0,-5.91932 -4.97542,-8.07247 -12.98781,-8.11265 l -6.75321,-10e-4 0.0391,-37.8457 12.97657,-0.0859 -0.004,-4.91406 z m 12.7675,44.81577 c 1.72585,9e-5 3.12491,1.39915 3.125,3.125 9.9e-4,1.72661 -1.39838,3.12686 -3.125,3.12695 -1.72662,-9e-5 -3.12599,-1.40034 -3.125,-3.12695 9e-5,-1.72585 1.39915,-3.12491 3.125,-3.125 z m -10.91762,2.19559 -0.0577,13.06483 c -0.0516,11.69404 -11.09153,13.01167 -16.0626,13.01167 -5.69859,0.16855 -15.41338,-2.93858 -15.41338,-13.13472 0,-6.17413 7.29673,-12.77844 15.3211,-12.77844 z"
       transform="scale(0.28222222,0.28222222)"
       id="path3434"
       inkscape:connector-curvature="0"
       sodipodi:nodetypes="ccscscsccsssssccccccccscscssccccccccccccccccccccscccc" />
  </g>
</svg>
